{
  // Database configs
  "DatabaseSettings": {
    "host": "localhost",
    "user": "root",
    "database": "login"
  },
  "emailSettings":{
    "emailFrom":"kuldeep@clicklabs.co",
    "password":"clicklabs147"
  },
  "PORT":8002
}